{
  "page": 305,
  "rows": [
    {
      "pages": 865,
      "count": 865,
      "contextId": 847,
      "row": [
        {
          "templateType": 5,
          "itemId": 847,
          "itemName": "015 4829",
          "itemTypeId": 4
        },
        "015 4829 - Special Events",
        "Campus - Main, Type - Conference / Meeting Room, Type - Multi-Purpose",
        "Access - Card, Air Conditioning, AV - Conference Phone, AV - Data Projector, AV - DVD, AV - Input - Aux, AV - Internet - Wireless, AV - Remotes (Wall Mounted), AV - Screen - Automatic, AV - Telephone, Board - White, Computers - PC, Food - Allowed, HyFlex, Power - Outlets - Floor, Power - Outlets - Wall, Presentation Technology - Smart Classroom - Standard, Seating - Moveable, Seating - Tables & Chairs, Windows",
        "Classroom Rows, Hollow Square",
        47,
        47,
        {
          "templateType": 41,
          "itemId": 12,
          "itemName": "Building 15: Library",
          "itemTypeId": 41
        }
      ]
    }
  ],
  "cols": [
    {
      "isPermanent": 1,
      "isDateTime": 0,
      "name": "Name",
      "isDate": 0,
      "prefname": "name",
      "isVisible": 1,
      "sortable": 1,
      "isTime": 0,
      "order": "asc"
    },
    {
      "isPermanent": 0,
      "isDateTime": 0,
      "name": "Formal Name",
      "isDate": 0,
      "prefname": "formal_name",
      "isVisible": 1,
      "sortable": 1,
      "isTime": 0
    },
    {
      "isPermanent": 0,
      "isDateTime": 0,
      "name": "Categories",
      "isDate": 0,
      "prefname": "categories",
      "isVisible": 1,
      "sortable": 0,
      "isTime": 0
    },
    {
      "isPermanent": 0,
      "isDateTime": 0,
      "name": "Features",
      "isDate": 0,
      "prefname": "features",
      "isVisible": 1,
      "sortable": 0,
      "isTime": 0
    },
    {
      "isPermanent": 0,
      "isDateTime": 0,
      "name": "Layouts",
      "isDate": 0,
      "prefname": "layouts",
      "isVisible": 1,
      "sortable": 0,
      "isTime": 0
    },
    {
      "isPermanent": 0,
      "isDateTime": 0,
      "name": "Max Capacity",
      "isDate": 0,
      "prefname": "max_capacity",
      "isVisible": 1,
      "sortable": 1,
      "isTime": 0
    },
    {
      "isPermanent": 0,
      "isDateTime": 0,
      "name": "Default Capacity",
      "isDate": 0,
      "prefname": "default_capacity",
      "isVisible": 1,
      "sortable": 0,
      "isTime": 0
    },
    {
      "isPermanent": 0,
      "isDateTime": 0,
      "name": "Building",
      "isDate": 0,
      "prefname": "bldg_name",
      "isVisible": 1,
      "sortable": 1,
      "isTime": 0
    }
  ],
  "cacheId": 13595,
  "page_size": 1
}
