{
  "page": 448,
  "rows": [
    {
      "pages": 865,
      "count": 865,
      "contextId": 398,
      "row": [
        {
          "templateType": 5,
          "itemId": 398,
          "itemName": "042 1412A",
          "itemTypeId": 4
        },
        "BRIC Conference Room",
        "ASI, Campus - Main, Type - Conference / Meeting Room, Type - Recreational",
        "Air Conditioning, AV - Conference Phone, AV - Overhead Projector, Board - White, Computers - PC, Food - Allowed, Furniture - Conference Table, Lectern, Lighting - Dimmable, Power - Outlets - Wall, Seating - Tables & Chairs",
        "As Is",
        12,
        12,
        {
          "templateType": 41,
          "itemId": 23,
          "itemName": "Building 42: Bronco Recreation Intramural Complex (BRIC)",
          "itemTypeId": 41
        }
      ]
    }
  ],
  "cols": [
    {
      "isPermanent": 1,
      "isDateTime": 0,
      "name": "Name",
      "isDate": 0,
      "prefname": "name",
      "isVisible": 1,
      "sortable": 1,
      "isTime": 0,
      "order": "asc"
    },
    {
      "isPermanent": 0,
      "isDateTime": 0,
      "name": "Formal Name",
      "isDate": 0,
      "prefname": "formal_name",
      "isVisible": 1,
      "sortable": 1,
      "isTime": 0
    },
    {
      "isPermanent": 0,
      "isDateTime": 0,
      "name": "Categories",
      "isDate": 0,
      "prefname": "categories",
      "isVisible": 1,
      "sortable": 0,
      "isTime": 0
    },
    {
      "isPermanent": 0,
      "isDateTime": 0,
      "name": "Features",
      "isDate": 0,
      "prefname": "features",
      "isVisible": 1,
      "sortable": 0,
      "isTime": 0
    },
    {
      "isPermanent": 0,
      "isDateTime": 0,
      "name": "Layouts",
      "isDate": 0,
      "prefname": "layouts",
      "isVisible": 1,
      "sortable": 0,
      "isTime": 0
    },
    {
      "isPermanent": 0,
      "isDateTime": 0,
      "name": "Max Capacity",
      "isDate": 0,
      "prefname": "max_capacity",
      "isVisible": 1,
      "sortable": 1,
      "isTime": 0
    },
    {
      "isPermanent": 0,
      "isDateTime": 0,
      "name": "Default Capacity",
      "isDate": 0,
      "prefname": "default_capacity",
      "isVisible": 1,
      "sortable": 0,
      "isTime": 0
    },
    {
      "isPermanent": 0,
      "isDateTime": 0,
      "name": "Building",
      "isDate": 0,
      "prefname": "bldg_name",
      "isVisible": 1,
      "sortable": 1,
      "isTime": 0
    }
  ],
  "cacheId": 13668,
  "page_size": 1
}
