{
  "page": 492,
  "rows": [
    {
      "pages": 865,
      "count": 865,
      "contextId": 1124,
      "row": [
        {
          "templateType": 5,
          "itemId": 1124,
          "itemName": "059 0108",
          "itemTypeId": 4
        },
        "059 0108 - La Cienega Conference Room",
        "Campus - Main, Type - Conference / Meeting Room",
        "24hr Restroom/HVAC access, Access - Card, Air Conditioning, Appliance - Refrigerator, AV - DVD, AV - Input - Aux, AV - Input - HDMI, AV - Internet - Wireless, AV - Remotes, AV - TV, Bathroom Attached, Board - White, Computers - PC, Food - Allowed, Kitchen, Power - Outlets - Wall, Presentation Technology - Basic, Seating - Moveable, Seating - Tables & Chairs, Sink, Windows",
        "Conference",
        18,
        12,
        {
          "templateType": 41,
          "itemId": 27,
          "itemName": "Building 59: Traditional Halls - La Cienega Center",
          "itemTypeId": 41
        }
      ]
    }
  ],
  "cols": [
    {
      "isPermanent": 1,
      "isDateTime": 0,
      "name": "Name",
      "isDate": 0,
      "prefname": "name",
      "isVisible": 1,
      "sortable": 1,
      "isTime": 0,
      "order": "asc"
    },
    {
      "isPermanent": 0,
      "isDateTime": 0,
      "name": "Formal Name",
      "isDate": 0,
      "prefname": "formal_name",
      "isVisible": 1,
      "sortable": 1,
      "isTime": 0
    },
    {
      "isPermanent": 0,
      "isDateTime": 0,
      "name": "Categories",
      "isDate": 0,
      "prefname": "categories",
      "isVisible": 1,
      "sortable": 0,
      "isTime": 0
    },
    {
      "isPermanent": 0,
      "isDateTime": 0,
      "name": "Features",
      "isDate": 0,
      "prefname": "features",
      "isVisible": 1,
      "sortable": 0,
      "isTime": 0
    },
    {
      "isPermanent": 0,
      "isDateTime": 0,
      "name": "Layouts",
      "isDate": 0,
      "prefname": "layouts",
      "isVisible": 1,
      "sortable": 0,
      "isTime": 0
    },
    {
      "isPermanent": 0,
      "isDateTime": 0,
      "name": "Max Capacity",
      "isDate": 0,
      "prefname": "max_capacity",
      "isVisible": 1,
      "sortable": 1,
      "isTime": 0
    },
    {
      "isPermanent": 0,
      "isDateTime": 0,
      "name": "Default Capacity",
      "isDate": 0,
      "prefname": "default_capacity",
      "isVisible": 1,
      "sortable": 0,
      "isTime": 0
    },
    {
      "isPermanent": 0,
      "isDateTime": 0,
      "name": "Building",
      "isDate": 0,
      "prefname": "bldg_name",
      "isVisible": 1,
      "sortable": 1,
      "isTime": 0
    }
  ],
  "cacheId": 13689,
  "page_size": 1
}
