{
  "page": 506,
  "rows": [
    {
      "pages": 865,
      "count": 865,
      "contextId": 1119,
      "row": [
        {
          "templateType": 5,
          "itemId": 1119,
          "itemName": "073 0124",
          "itemTypeId": 4
        },
        "073 0124 - Residentials Hall Project Room",
        "Campus - Main, Type - Conference / Meeting Room, Type - Multi-Purpose",
        "24hr Restroom/HVAC access, Access - Card, Air Conditioning, AV - Internet - Wireless, AV - TV, Bathroom Attached, Food - Allowed, Lighting - Dimmable, Mirrors, Power - Outlets - Wall, Seating - Moveable, Seating - Tables & Chairs, Sink, Windows",
        "Classroom Rows",
        58,
        58,
        {
          "templateType": 41,
          "itemId": 31,
          "itemName": "Building 73: Residence Halls - Sicomoro Hall",
          "itemTypeId": 41
        }
      ]
    }
  ],
  "cols": [
    {
      "isPermanent": 1,
      "isDateTime": 0,
      "name": "Name",
      "isDate": 0,
      "prefname": "name",
      "isVisible": 1,
      "sortable": 1,
      "isTime": 0,
      "order": "asc"
    },
    {
      "isPermanent": 0,
      "isDateTime": 0,
      "name": "Formal Name",
      "isDate": 0,
      "prefname": "formal_name",
      "isVisible": 1,
      "sortable": 1,
      "isTime": 0
    },
    {
      "isPermanent": 0,
      "isDateTime": 0,
      "name": "Categories",
      "isDate": 0,
      "prefname": "categories",
      "isVisible": 1,
      "sortable": 0,
      "isTime": 0
    },
    {
      "isPermanent": 0,
      "isDateTime": 0,
      "name": "Features",
      "isDate": 0,
      "prefname": "features",
      "isVisible": 1,
      "sortable": 0,
      "isTime": 0
    },
    {
      "isPermanent": 0,
      "isDateTime": 0,
      "name": "Layouts",
      "isDate": 0,
      "prefname": "layouts",
      "isVisible": 1,
      "sortable": 0,
      "isTime": 0
    },
    {
      "isPermanent": 0,
      "isDateTime": 0,
      "name": "Max Capacity",
      "isDate": 0,
      "prefname": "max_capacity",
      "isVisible": 1,
      "sortable": 1,
      "isTime": 0
    },
    {
      "isPermanent": 0,
      "isDateTime": 0,
      "name": "Default Capacity",
      "isDate": 0,
      "prefname": "default_capacity",
      "isVisible": 1,
      "sortable": 0,
      "isTime": 0
    },
    {
      "isPermanent": 0,
      "isDateTime": 0,
      "name": "Building",
      "isDate": 0,
      "prefname": "bldg_name",
      "isVisible": 1,
      "sortable": 1,
      "isTime": 0
    }
  ],
  "cacheId": 13698,
  "page_size": 1
}
