{
  "page": 301,
  "rows": [
    {
      "pages": 865,
      "count": 865,
      "contextId": 849,
      "row": [
        {
          "templateType": 5,
          "itemId": 849,
          "itemName": "015 3000",
          "itemTypeId": 4
        },
        "015 3000 - Grand Reading Room",
        "Campus - Main, Type - Multi-Purpose",
        "Access - Card, Air Conditioning, Food - Not Allowed, Furniture - Conference Table, Power - Outlets - Wall, Seating - Moveable, Seating - Tables & Chairs, Seating - Tablet Arm Chairs, Windows",
        "As Is, Banquet, Chairs Only, Chevron, Crescent / Half Circle, Lecture, School Room / Theater Split, Theater, U-Shaped",
        50,
        50,
        {
          "templateType": 41,
          "itemId": 12,
          "itemName": "Building 15: Library",
          "itemTypeId": 41
        }
      ]
    }
  ],
  "cols": [
    {
      "isPermanent": 1,
      "isDateTime": 0,
      "name": "Name",
      "isDate": 0,
      "prefname": "name",
      "isVisible": 1,
      "sortable": 1,
      "isTime": 0,
      "order": "asc"
    },
    {
      "isPermanent": 0,
      "isDateTime": 0,
      "name": "Formal Name",
      "isDate": 0,
      "prefname": "formal_name",
      "isVisible": 1,
      "sortable": 1,
      "isTime": 0
    },
    {
      "isPermanent": 0,
      "isDateTime": 0,
      "name": "Categories",
      "isDate": 0,
      "prefname": "categories",
      "isVisible": 1,
      "sortable": 0,
      "isTime": 0
    },
    {
      "isPermanent": 0,
      "isDateTime": 0,
      "name": "Features",
      "isDate": 0,
      "prefname": "features",
      "isVisible": 1,
      "sortable": 0,
      "isTime": 0
    },
    {
      "isPermanent": 0,
      "isDateTime": 0,
      "name": "Layouts",
      "isDate": 0,
      "prefname": "layouts",
      "isVisible": 1,
      "sortable": 0,
      "isTime": 0
    },
    {
      "isPermanent": 0,
      "isDateTime": 0,
      "name": "Max Capacity",
      "isDate": 0,
      "prefname": "max_capacity",
      "isVisible": 1,
      "sortable": 1,
      "isTime": 0
    },
    {
      "isPermanent": 0,
      "isDateTime": 0,
      "name": "Default Capacity",
      "isDate": 0,
      "prefname": "default_capacity",
      "isVisible": 1,
      "sortable": 0,
      "isTime": 0
    },
    {
      "isPermanent": 0,
      "isDateTime": 0,
      "name": "Building",
      "isDate": 0,
      "prefname": "bldg_name",
      "isVisible": 1,
      "sortable": 1,
      "isTime": 0
    }
  ],
  "cacheId": 13593,
  "page_size": 1
}
