{
  "page": 156,
  "rows": [
    {
      "pages": 865,
      "count": 865,
      "contextId": 1104,
      "row": [
        {
          "templateType": 5,
          "itemId": 1104,
          "itemName": "007 0200",
          "itemTypeId": 4
        },
        "ENV Zoom Room",
        "Campus - Main, College - ENV, Type - Conference / Meeting Room",
        "Access - Key, Air Conditioning, AV - Video Conferencing, Board - White, Floor - Tile, Furniture - Conference Table, Lighting - Blackout Capable, Podium, Presentation Technology - Conference Room Connection, Seating - Executive Chairs, Seating - Moveable, Seating - Tables & Chairs, Windows",
        "Conference",
        10,
        10,
        {
          "templateType": 41,
          "itemId": 8,
          "itemName": "Building 7: College of Environmental Design",
          "itemTypeId": 41
        }
      ]
    }
  ],
  "cols": [
    {
      "isPermanent": 1,
      "isDateTime": 0,
      "name": "Name",
      "isDate": 0,
      "prefname": "name",
      "isVisible": 1,
      "sortable": 1,
      "isTime": 0,
      "order": "asc"
    },
    {
      "isPermanent": 0,
      "isDateTime": 0,
      "name": "Formal Name",
      "isDate": 0,
      "prefname": "formal_name",
      "isVisible": 1,
      "sortable": 1,
      "isTime": 0
    },
    {
      "isPermanent": 0,
      "isDateTime": 0,
      "name": "Categories",
      "isDate": 0,
      "prefname": "categories",
      "isVisible": 1,
      "sortable": 0,
      "isTime": 0
    },
    {
      "isPermanent": 0,
      "isDateTime": 0,
      "name": "Features",
      "isDate": 0,
      "prefname": "features",
      "isVisible": 1,
      "sortable": 0,
      "isTime": 0
    },
    {
      "isPermanent": 0,
      "isDateTime": 0,
      "name": "Layouts",
      "isDate": 0,
      "prefname": "layouts",
      "isVisible": 1,
      "sortable": 0,
      "isTime": 0
    },
    {
      "isPermanent": 0,
      "isDateTime": 0,
      "name": "Max Capacity",
      "isDate": 0,
      "prefname": "max_capacity",
      "isVisible": 1,
      "sortable": 1,
      "isTime": 0
    },
    {
      "isPermanent": 0,
      "isDateTime": 0,
      "name": "Default Capacity",
      "isDate": 0,
      "prefname": "default_capacity",
      "isVisible": 1,
      "sortable": 0,
      "isTime": 0
    },
    {
      "isPermanent": 0,
      "isDateTime": 0,
      "name": "Building",
      "isDate": 0,
      "prefname": "bldg_name",
      "isVisible": 1,
      "sortable": 1,
      "isTime": 0
    }
  ],
  "cacheId": 13519,
  "page_size": 1
}
