{
  "page": 443,
  "rows": [
    {
      "pages": 865,
      "count": 865,
      "contextId": 396,
      "row": [
        {
          "templateType": 5,
          "itemId": 396,
          "itemName": "042 1321",
          "itemTypeId": 4
        },
        "BRIC Studio B (MMA)",
        "ASI, Available For Public Use, Campus - Main, Type - Multi-Purpose, Type - Recreational",
        "Air Conditioning, Floor - Wrestling Mat, Food - Not Allowed, Lighting - Smart, Mirrors, Power - Outlets - Wall",
        "As Is, Banquet, Chevron, Circle, Classroom Rows, Conference, Crescent / Half Circle, Hollow Square, Lecture, Perimeter Seating, School Room / Theater Split, Theater, U-Shaped",
        31,
        31,
        {
          "templateType": 41,
          "itemId": 23,
          "itemName": "Building 42: Bronco Recreation Intramural Complex (BRIC)",
          "itemTypeId": 41
        }
      ]
    }
  ],
  "cols": [
    {
      "isPermanent": 1,
      "isDateTime": 0,
      "name": "Name",
      "isDate": 0,
      "prefname": "name",
      "isVisible": 1,
      "sortable": 1,
      "isTime": 0,
      "order": "asc"
    },
    {
      "isPermanent": 0,
      "isDateTime": 0,
      "name": "Formal Name",
      "isDate": 0,
      "prefname": "formal_name",
      "isVisible": 1,
      "sortable": 1,
      "isTime": 0
    },
    {
      "isPermanent": 0,
      "isDateTime": 0,
      "name": "Categories",
      "isDate": 0,
      "prefname": "categories",
      "isVisible": 1,
      "sortable": 0,
      "isTime": 0
    },
    {
      "isPermanent": 0,
      "isDateTime": 0,
      "name": "Features",
      "isDate": 0,
      "prefname": "features",
      "isVisible": 1,
      "sortable": 0,
      "isTime": 0
    },
    {
      "isPermanent": 0,
      "isDateTime": 0,
      "name": "Layouts",
      "isDate": 0,
      "prefname": "layouts",
      "isVisible": 1,
      "sortable": 0,
      "isTime": 0
    },
    {
      "isPermanent": 0,
      "isDateTime": 0,
      "name": "Max Capacity",
      "isDate": 0,
      "prefname": "max_capacity",
      "isVisible": 1,
      "sortable": 1,
      "isTime": 0
    },
    {
      "isPermanent": 0,
      "isDateTime": 0,
      "name": "Default Capacity",
      "isDate": 0,
      "prefname": "default_capacity",
      "isVisible": 1,
      "sortable": 0,
      "isTime": 0
    },
    {
      "isPermanent": 0,
      "isDateTime": 0,
      "name": "Building",
      "isDate": 0,
      "prefname": "bldg_name",
      "isVisible": 1,
      "sortable": 1,
      "isTime": 0
    }
  ],
  "cacheId": 13666,
  "page_size": 1
}
