{
  "page": 393,
  "rows": [
    {
      "pages": 865,
      "count": 865,
      "contextId": 972,
      "row": [
        {
          "templateType": 5,
          "itemId": 972,
          "itemName": "035 2120",
          "itemTypeId": 4
        },
        "BSC Private Office In the bsc next to the admin suite on the 2nd floor",
        "ASI, Campus - Main, Type - Small Study/Work Space",
        "",
        "",
        4,
        4,
        {
          "templateType": 41,
          "itemId": 19,
          "itemName": "Building 35: Bronco Student Center",
          "itemTypeId": 41
        }
      ]
    }
  ],
  "cols": [
    {
      "isPermanent": 1,
      "isDateTime": 0,
      "name": "Name",
      "isDate": 0,
      "prefname": "name",
      "isVisible": 1,
      "sortable": 1,
      "isTime": 0,
      "order": "asc"
    },
    {
      "isPermanent": 0,
      "isDateTime": 0,
      "name": "Formal Name",
      "isDate": 0,
      "prefname": "formal_name",
      "isVisible": 1,
      "sortable": 1,
      "isTime": 0
    },
    {
      "isPermanent": 0,
      "isDateTime": 0,
      "name": "Categories",
      "isDate": 0,
      "prefname": "categories",
      "isVisible": 1,
      "sortable": 0,
      "isTime": 0
    },
    {
      "isPermanent": 0,
      "isDateTime": 0,
      "name": "Features",
      "isDate": 0,
      "prefname": "features",
      "isVisible": 1,
      "sortable": 0,
      "isTime": 0
    },
    {
      "isPermanent": 0,
      "isDateTime": 0,
      "name": "Layouts",
      "isDate": 0,
      "prefname": "layouts",
      "isVisible": 1,
      "sortable": 0,
      "isTime": 0
    },
    {
      "isPermanent": 0,
      "isDateTime": 0,
      "name": "Max Capacity",
      "isDate": 0,
      "prefname": "max_capacity",
      "isVisible": 1,
      "sortable": 1,
      "isTime": 0
    },
    {
      "isPermanent": 0,
      "isDateTime": 0,
      "name": "Default Capacity",
      "isDate": 0,
      "prefname": "default_capacity",
      "isVisible": 1,
      "sortable": 0,
      "isTime": 0
    },
    {
      "isPermanent": 0,
      "isDateTime": 0,
      "name": "Building",
      "isDate": 0,
      "prefname": "bldg_name",
      "isVisible": 1,
      "sortable": 1,
      "isTime": 0
    }
  ],
  "cacheId": 13640,
  "page_size": 1
}
