{
  "page": 465,
  "rows": [
    {
      "pages": 865,
      "count": 865,
      "contextId": 762,
      "row": [
        {
          "templateType": 5,
          "itemId": 762,
          "itemName": "042C 0100G",
          "itemTypeId": 4
        },
        "BRIC Lap Lanes 7-8",
        "ASI, Available For Public Use, Campus - Main, Type - Outdoor, Type - Recreational, Type - Small Study/Work Space",
        "Food - Not Allowed",
        "As Is",
        15,
        15,
        { "templateType": 41, "itemId": "", "itemName": "", "itemTypeId": 41 }
      ]
    }
  ],
  "cols": [
    {
      "isPermanent": 1,
      "isDateTime": 0,
      "name": "Name",
      "isDate": 0,
      "prefname": "name",
      "isVisible": 1,
      "sortable": 1,
      "isTime": 0,
      "order": "asc"
    },
    {
      "isPermanent": 0,
      "isDateTime": 0,
      "name": "Formal Name",
      "isDate": 0,
      "prefname": "formal_name",
      "isVisible": 1,
      "sortable": 1,
      "isTime": 0
    },
    {
      "isPermanent": 0,
      "isDateTime": 0,
      "name": "Categories",
      "isDate": 0,
      "prefname": "categories",
      "isVisible": 1,
      "sortable": 0,
      "isTime": 0
    },
    {
      "isPermanent": 0,
      "isDateTime": 0,
      "name": "Features",
      "isDate": 0,
      "prefname": "features",
      "isVisible": 1,
      "sortable": 0,
      "isTime": 0
    },
    {
      "isPermanent": 0,
      "isDateTime": 0,
      "name": "Layouts",
      "isDate": 0,
      "prefname": "layouts",
      "isVisible": 1,
      "sortable": 0,
      "isTime": 0
    },
    {
      "isPermanent": 0,
      "isDateTime": 0,
      "name": "Max Capacity",
      "isDate": 0,
      "prefname": "max_capacity",
      "isVisible": 1,
      "sortable": 1,
      "isTime": 0
    },
    {
      "isPermanent": 0,
      "isDateTime": 0,
      "name": "Default Capacity",
      "isDate": 0,
      "prefname": "default_capacity",
      "isVisible": 1,
      "sortable": 0,
      "isTime": 0
    },
    {
      "isPermanent": 0,
      "isDateTime": 0,
      "name": "Building",
      "isDate": 0,
      "prefname": "bldg_name",
      "isVisible": 1,
      "sortable": 1,
      "isTime": 0
    }
  ],
  "cacheId": 13676,
  "page_size": 1
}
